Minería de datos: PEC2 - Métodos no supervisados
…
3 Ejemplo 1.2

3.1 Método de agregación k-means con datos reales

A continuación vamos a ver otro ejemplo de cómo se usan los modelos de agregación. Para ello usaremos el data set penguins contenido en el paquete R palmerpenguins. Esta base de datos se encuentra descrita en https://cran.r-project.org/web/packages/palmerpenguins/index.html y contiene mediciones de tamaño, observaciones de puestas y proporciones de isótopos sanguíneos de tres especies de pingüinos observadas en tres islas del archipiélago Palmer, en la Antártida, durante un período de estudio de tres años.

Este dataset está previamente trabajado para que los datos estén limpios y sin errores. De no ser así antes de nada deberíamos buscar errores, valores nulos u outliers. Deberíamos tratar de discretizar o eliminar columnas. Incluso realizar este último paso varias veces para comprobar los diferentes resultados y elegir el que mejor rendimiento nos dé. De todos modos contiene algún valor nulo que procederemos a ingorar.

Vamos a visualizar la estructura y resumen de los datos

if (!require('palmerpenguins')) install.packages('palmerpenguins')
library(palmerpenguins)
palmerpenguins::penguins

## # A tibble: 344 x 8
##    species island    bill_length_mm bill_depth_mm flipper_length_mm body_mass_g
##    <fct>   <fct>              <dbl>         <dbl>             <int>       <int>
##  1 Adelie  Torgersen           39.1          18.7               181        3750
##  2 Adelie  Torgersen           39.5          17.4               186        3800
##  3 Adelie  Torgersen           40.3          18                 195        3250
##  4 Adelie  Torgersen           NA            NA                  NA          NA
##  5 Adelie  Torgersen           36.7          19.3               193        3450
##  6 Adelie  Torgersen           39.3          20.6               190        3650
##  7 Adelie  Torgersen           38.9          17.8               181        3625
##  8 Adelie  Torgersen           39.2          19.6               195        4675
##  9 Adelie  Torgersen           34.1          18.1               193        3475
## 10 Adelie  Torgersen           42            20.2               190        4250
## # ... with 334 more rows, and 2 more variables: sex <fct>, year <int>
…
